[
    {
        "role":"DevOps Architect",
        "company":"BBVA New Digital Business",
        "summary":"Responsible of designing and implementing the appropriate infrastructure to develop and deploy innovative projects on Deep Learning, blockchain, AKKA architecture, etc. I created a microservices ecosystem based on Docker, Kubernetes and Amazon Web Services that let developers auto-deploy their apps while ensuring uptime, quality and security.",
        "range":"February 2017 - Present"
    },
    {
        "role":"DevOps Head",
        "company":"BQ",
        "summary":"Starting as a devops engineer, I later became head of devops in the Information Systems Division. I managed and expanded the company's cloud infrastructure, based on Google Cloud Platform, Jenkins and Kubernetes, to improve the software development processes. I also contributed to the company by creating internal APIs and web tools using Python and Angular2. It teached more than 200 services in production.",
        "range":"January 2016 - February 2017"
    },
    {
        "role":"DevOps Engineer",
        "company":"Telefonica R&D",
        "summary":"SysAdmin and DevOps engineer in charge of maintaining the data center (~300 machines), virtualization environments on VMWare and OpenStack, Git internal platform, etc. Started the adoption of Docker and Jenkins.",
        "range":"August 2014 - January 2016"
    },
    {
        "role":"Full-stack Developer",
        "company":"CECOR",
        "summary":"Full-stack developer, I developed a noise monitoring system from scratch: http://cecorsl.com/noise-monitor/sonometers/1",
        "range":"June 2014 - January 2016"
    }
]
