[
  {
      "grouping":"SysAdmin",
      "skills":["Docker", "Linux", "Bash", "Prometheus", "Nginx", "GitLab", "Fluentd", "MySQL", "Mongo"]
  },
  {
      "grouping":"Cloud",
      "skills":[ "AWS", "Google Cloud", "Kubernetes", "Helm", "Ansible", "Terraform", "Serverless", "Ethereum"]
  },
  {
      "grouping":"DevOps / Methodologies",
      "skills":[ "CI/CD", "Jenkins", "Continuous Security", "Git", "Agile", "Scrum" ]
  },
  {
      "grouping":"Development",
      "skills":[ "Python", "NodeJS", "REST APIs", "HTML", "CSS", "JavaScript"]
  },
  {
      "grouping":"Data",
      "skills":[ "Pandas", "Keras", "JupyterLab"]
  }

]
